{
  "page": 1,
  "limit": 20,
  "explicit": false,
  "total": 50,
  "has_more": true,
  "list": [
    {
      "id": "x22sw32",
      "username": "kiwysMedia",
      "screenname": "Kiwys TV",
      "cover_250_url": "https://s1-ssl.dmcdn.net/pGuMt/x250-KXO.jpg",
      "avatar_120_url": "http://s2.dmcdn.net/ogiyO/120x120-MLO.jpg",
      "videos_total": 56,
      "fans_total": 198
    },
    {
      "id": "x1vhfsp",
      "username": "GenerationIron",
      "screenname": "Generation Iron Fitness Network",
      "cover_250_url": "https://s2-ssl.dmcdn.net/ohhrT/x250-4VM.jpg",
      "avatar_120_url": "http://s1.dmcdn.net/j52du/120x120-png/hcX.jpg",
      "videos_total": 760,
      "fans_total": 3964
    },
    {
      "id": "x45b2k",
      "username": "refinery29",
      "screenname": "Refinery29",
      "cover_250_url": "https://s1-ssl.dmcdn.net/hJgeT/x250-l2G.jpg",
      "avatar_120_url": "http://s2.dmcdn.net/gvMzO/120x120-3po.jpg",
      "videos_total": 512,
      "fans_total": 3175
    },
    {
      "id": "x21bgqb",
      "username": "nitrocircus",
      "screenname": "Nitro Circus",
      "cover_250_url": "https://s1-ssl.dmcdn.net/lSg0x/x250-GP8.jpg",
      "avatar_120_url": "http://s2.dmcdn.net/lSf-9/120x120-t-P.jpg",
      "videos_total": 569,
      "fans_total": 1582
    },
    {
      "id": "x25hxv5",
      "username": "mediakraftENG",
      "screenname": "Mediakraft TV",
      "cover_250_url": "https://s2-ssl.dmcdn.net/qshfl/x250-I0Z.jpg",
      "avatar_120_url": "http://s2.dmcdn.net/qwJEL/120x120-t01.jpg",
      "videos_total": 4,
      "fans_total": 3
    },
    {
      "id": "x1xi0jc",
      "username": "DavisCup1",
      "screenname": "Davis Cup by BNP Paribas",
      "cover_250_url": "https://s2-ssl.dmcdn.net/lIw5a/x250-YTo.jpg",
      "avatar_120_url": "http://s1.dmcdn.net/lIw4Y/120x120-Jvr.jpg",
      "videos_total": 1109,
      "fans_total": 2317
    },
    {
      "id": "x1yyrrz",
      "username": "FBE",
      "screenname": "FBE",
      "cover_250_url": null,
      "avatar_120_url": "http://s2.dmcdn.net/kHZIB/120x120-_cK.jpg",
      "videos_total": 1306,
      "fans_total": 2227
    },
    {
      "id": "x235wf4",
      "username": "worldsurfleague",
      "screenname": "World Surf League",
      "cover_250_url": "https://s1-ssl.dmcdn.net/pg1sn/x250-Qkw.jpg",
      "avatar_120_url": "http://s2.dmcdn.net/o21ll/120x120-FMo.jpg",
      "videos_total": 59,
      "fans_total": 97
    },
    {
      "id": "x1yspox",
      "username": "24heuresdumans",
      "screenname": "24 Heures du Mans",
      "cover_250_url": "https://s1-ssl.dmcdn.net/oUlf4/x250-Cyu.jpg",
      "avatar_120_url": "http://s2.dmcdn.net/kk9kT/120x120-png/RBJ.jpg",
      "videos_total": 1101,
      "fans_total": 249
    },
    {
      "id": "x1aqr33",
      "username": "POPnSPORT",
      "screenname": "POPnSPORT",
      "cover_250_url": "https://s1-ssl.dmcdn.net/DmtvR/x250-qjK.jpg",
      "avatar_120_url": "http://s1.dmcdn.net/BxG5W/120x120-8lL.jpg",
      "videos_total": 2781,
      "fans_total": 1179
    },
    {
      "id": "x23ppl8",
      "username": "IFLScience",
      "screenname": "IFLScience",
      "cover_250_url": "https://s2-ssl.dmcdn.net/pdEAx/x250-5mA.jpg",
      "avatar_120_url": "http://s2.dmcdn.net/pYgMS/120x120-dL3.jpg",
      "videos_total": 162,
      "fans_total": 95
    },
    {
      "id": "xjgwi1",
      "username": "Riders-Match",
      "screenname": "RIDERS MATCH - Best Extreme Videos",
      "cover_250_url": "https://s1-ssl.dmcdn.net/hPyft/x250-J30.jpg",
      "avatar_120_url": "http://s1.dmcdn.net/F9Kxd/120x120-png/MLf.jpg",
      "videos_total": 14541,
      "fans_total": 8742
    },
    {
      "id": "xp38fy",
      "username": "RedBull",
      "screenname": "Red Bull",
      "cover_250_url": "https://s2-ssl.dmcdn.net/kdvjW/x250-uph.jpg",
      "avatar_120_url": "http://s1.dmcdn.net/JJNhr/120x120-png/aUq.jpg",
      "videos_total": 1509,
      "fans_total": 50676
    },
    {
      "id": "x1t16tk",
      "username": "WhoHaha",
      "screenname": "WhoHaha",
      "cover_250_url": "https://s1-ssl.dmcdn.net/XmyRS/x250-DfC.jpg",
      "avatar_120_url": "http://s2.dmcdn.net/XmySj/120x120-png/blj.jpg",
      "videos_total": 437,
      "fans_total": 9623
    },
    {
      "id": "x22bdcz",
      "username": "SixNationsRugby",
      "screenname": "Six Nations Rugby",
      "cover_250_url": "https://s1-ssl.dmcdn.net/okO6u/x250-t7a.jpg",
      "avatar_120_url": "http://s1.dmcdn.net/okO8P/120x120-_33.jpg",
      "videos_total": 2180,
      "fans_total": 158
    },
    {
      "id": "x1y5081",
      "username": "Cheddar",
      "screenname": "Cheddar",
      "cover_250_url": "https://s1-ssl.dmcdn.net/ivZdt/x250-pse.jpg",
      "avatar_120_url": "http://s2.dmcdn.net/ivXaV/120x120-png/GT6.jpg",
      "videos_total": 3787,
      "fans_total": 9821
    },
    {
      "id": "x1hz96z",
      "username": "Sport-Buzz",
      "screenname": "Sport Buzz",
      "cover_250_url": "https://s2-ssl.dmcdn.net/ImyaI/x250-1zq.jpg",
      "avatar_120_url": "http://s2.dmcdn.net/ImxrU/120x120-G4i.jpg",
      "videos_total": 2435,
      "fans_total": 865
    },
    {
      "id": "x1jf2q2",
      "username": "Beinsports-FR",
      "screenname": "Beinsports-FR",
      "cover_250_url": "https://s2-ssl.dmcdn.net/f1NwD/x250-TaT.jpg",
      "avatar_120_url": "http://s2.dmcdn.net/f1NGv/120x120-PqH.jpg",
      "videos_total": 8014,
      "fans_total": 6192
    },
    {
      "id": "x1g0na4",
      "username": "whatculture",
      "screenname": "WhatCulture",
      "cover_250_url": "https://s1-ssl.dmcdn.net/GK-FA/x250-wwX.jpg",
      "avatar_120_url": "http://s2.dmcdn.net/GK-In/120x120-fQ3.jpg",
      "videos_total": 1346,
      "fans_total": 10205
    },
    {
      "id": "x24vth",
      "username": "CNEWS",
      "screenname": "CNEWS",
      "cover_250_url": "https://s2-ssl.dmcdn.net/nCj0k/x250-KDk.jpg",
      "avatar_120_url": "http://s1.dmcdn.net/hata3/120x120-0FN.jpg",
      "videos_total": 38565,
      "fans_total": 5309
    }
  ]
}